{
    "asset" : {
        "generator" : "Khronos glTF Blender I/O v1.8.19",
        "version" : "2.0"
    },
    "extensionsUsed" : [
        "KHR_texture_transform"
    ],
    "extensionsRequired" : [
        "KHR_texture_transform"
    ],
    "scene" : 0,
    "scenes" : [
        {
            "name" : "Scene",
            "nodes" : [
                0,
                1,
                2,
                3,
                4,
                5,
                6,
                7,
                8,
                9,
                10,
                11,
                12,
                13,
                14,
                15,
                16,
                17,
                18,
                19,
                20,
                21
            ]
        }
    ],
    "nodes" : [
        {
            "mesh" : 0,
            "name" : "Cylinder",
            "translation" : [
                16.5,
                12,
                45
            ]
        },
        {
            "mesh" : 1,
            "name" : "Cylinder.001",
            "translation" : [
                16.5,
                10.75,
                45
            ]
        },
        {
            "mesh" : 0,
            "name" : "Cylinder.002",
            "translation" : [
                5.5,
                27,
                45
            ]
        },
        {
            "mesh" : 1,
            "name" : "Cylinder.003",
            "translation" : [
                5.5,
                25.75,
                45
            ]
        },
        {
            "mesh" : 0,
            "name" : "Cylinder.004",
            "translation" : [
                27.5,
                19,
                45
            ]
        },
        {
            "mesh" : 1,
            "name" : "Cylinder.005",
            "translation" : [
                27.5,
                17.75,
                45
            ]
        },
        {
            "mesh" : 2,
            "name" : "Cube.008",
            "translation" : [
                25.004165649414062,
                3.667236328125,
                17.992929458618164
            ]
        },
        {
            "mesh" : 3,
            "name" : "Cube.010",
            "translation" : [
                20,
                23,
                -7
            ]
        },
        {
            "mesh" : 3,
            "name" : "Cube.011",
            "rotation" : [
                0,
                -1,
                0,
                -1.6292068494294654e-07
            ],
            "translation" : [
                24,
                23,
                7
            ]
        },
        {
            "mesh" : 4,
            "name" : "Cube.003",
            "translation" : [
                17.5,
                10.600000381469727,
                2
            ]
        },
        {
            "mesh" : 5,
            "name" : "Cube.012",
            "translation" : [
                27.01189422607422,
                12,
                24.999950408935547
            ]
        },
        {
            "mesh" : 6,
            "name" : "Cube.007",
            "translation" : [
                31.5,
                7,
                9
            ]
        },
        {
            "mesh" : 7,
            "name" : "Cube.017",
            "translation" : [
                15,
                15,
                -20
            ]
        },
        {
            "mesh" : 8,
            "name" : "Shadow Caster",
            "translation" : [
                25.004165649414062,
                3.667236328125,
                17.992929458618164
            ]
        },
        {
            "mesh" : 7,
            "name" : "Cube.019",
            "rotation" : [
                0,
                -1,
                0,
                -1.6292068494294654e-07
            ],
            "translation" : [
                17,
                12,
                -14
            ]
        },
        {
            "mesh" : 9,
            "name" : "Cube.020",
            "translation" : [
                31.5,
                7,
                9
            ]
        },
        {
            "mesh" : 10,
            "name" : "Cube.001",
            "translation" : [
                7,
                13,
                9
            ]
        },
        {
            "mesh" : 10,
            "name" : "Cube.014",
            "translation" : [
                1,
                13,
                5
            ]
        },
        {
            "mesh" : 11,
            "name" : "Cube.022",
            "translation" : [
                31.5,
                7,
                9
            ]
        },
        {
            "mesh" : 12,
            "name" : "Cube.023",
            "translation" : [
                14.369999885559082,
                13,
                2
            ]
        },
        {
            "mesh" : 13,
            "name" : "Cube.024",
            "translation" : [
                31.5,
                7,
                9
            ]
        },
        {
            "mesh" : 14,
            "name" : "Cube.026",
            "translation" : [
                31.5,
                7,
                9
            ]
        }
    ],
    "materials" : [
        {
            "doubleSided" : true,
            "name" : "Dev_Orange",
            "normalTexture" : {
                "extensions" : {
                    "KHR_texture_transform" : {
                        "offset" : [
                            0,
                            0.75
                        ],
                        "scale" : [
                            0.25,
                            0.25
                        ]
                    }
                },
                "index" : 0
            },
            "pbrMetallicRoughness" : {
                "baseColorTexture" : {
                    "extensions" : {
                        "KHR_texture_transform" : {
                            "offset" : [
                                0,
                                0.75
                            ],
                            "scale" : [
                                0.25,
                                0.25
                            ]
                        }
                    },
                    "index" : 1
                },
                "metallicRoughnessTexture" : {
                    "extensions" : {
                        "KHR_texture_transform" : {
                            "offset" : [
                                0,
                                0.75
                            ],
                            "scale" : [
                                0.25,
                                0.25
                            ]
                        }
                    },
                    "index" : 2
                }
            }
        },
        {
            "doubleSided" : true,
            "name" : "Dev_DarkBlue",
            "normalTexture" : {
                "extensions" : {
                    "KHR_texture_transform" : {
                        "offset" : [
                            0,
                            0.75
                        ],
                        "scale" : [
                            0.25,
                            0.25
                        ]
                    }
                },
                "index" : 3
            },
            "pbrMetallicRoughness" : {
                "baseColorTexture" : {
                    "extensions" : {
                        "KHR_texture_transform" : {
                            "offset" : [
                                0,
                                0.75
                            ],
                            "scale" : [
                                0.25,
                                0.25
                            ]
                        }
                    },
                    "index" : 4
                },
                "metallicRoughnessTexture" : {
                    "extensions" : {
                        "KHR_texture_transform" : {
                            "offset" : [
                                0,
                                0.75
                            ],
                            "scale" : [
                                0.25,
                                0.25
                            ]
                        }
                    },
                    "index" : 5
                }
            }
        },
        {
            "doubleSided" : true,
            "name" : "Dev_DarkGray",
            "normalTexture" : {
                "extensions" : {
                    "KHR_texture_transform" : {
                        "offset" : [
                            0,
                            0.75
                        ],
                        "scale" : [
                            0.25,
                            0.25
                        ]
                    }
                },
                "index" : 6
            },
            "pbrMetallicRoughness" : {
                "baseColorTexture" : {
                    "extensions" : {
                        "KHR_texture_transform" : {
                            "offset" : [
                                0,
                                0.75
                            ],
                            "scale" : [
                                0.25,
                                0.25
                            ]
                        }
                    },
                    "index" : 7
                },
                "metallicRoughnessTexture" : {
                    "extensions" : {
                        "KHR_texture_transform" : {
                            "offset" : [
                                0,
                                0.75
                            ],
                            "scale" : [
                                0.25,
                                0.25
                            ]
                        }
                    },
                    "index" : 8
                }
            }
        },
        {
            "doubleSided" : true,
            "name" : "Dev_Red",
            "normalTexture" : {
                "extensions" : {
                    "KHR_texture_transform" : {
                        "offset" : [
                            0,
                            0.75
                        ],
                        "scale" : [
                            0.25,
                            0.25
                        ]
                    }
                },
                "index" : 9
            },
            "pbrMetallicRoughness" : {
                "baseColorTexture" : {
                    "extensions" : {
                        "KHR_texture_transform" : {
                            "offset" : [
                                0,
                                0.75
                            ],
                            "scale" : [
                                0.25,
                                0.25
                            ]
                        }
                    },
                    "index" : 10
                },
                "metallicRoughnessTexture" : {
                    "extensions" : {
                        "KHR_texture_transform" : {
                            "offset" : [
                                0,
                                0.75
                            ],
                            "scale" : [
                                0.25,
                                0.25
                            ]
                        }
                    },
                    "index" : 11
                }
            }
        },
        {
            "doubleSided" : true,
            "name" : "Dev_Gray",
            "normalTexture" : {
                "extensions" : {
                    "KHR_texture_transform" : {
                        "offset" : [
                            0,
                            0.75
                        ],
                        "scale" : [
                            0.25,
                            0.25
                        ]
                    }
                },
                "index" : 12
            },
            "pbrMetallicRoughness" : {
                "baseColorTexture" : {
                    "extensions" : {
                        "KHR_texture_transform" : {
                            "offset" : [
                                0,
                                0.75
                            ],
                            "scale" : [
                                0.25,
                                0.25
                            ]
                        }
                    },
                    "index" : 13
                },
                "metallicRoughnessTexture" : {
                    "extensions" : {
                        "KHR_texture_transform" : {
                            "offset" : [
                                0,
                                0.75
                            ],
                            "scale" : [
                                0.25,
                                0.25
                            ]
                        }
                    },
                    "index" : 14
                }
            }
        },
        {
            "doubleSided" : true,
            "name" : "Dev_Violet",
            "normalTexture" : {
                "extensions" : {
                    "KHR_texture_transform" : {
                        "offset" : [
                            0,
                            0.75
                        ],
                        "scale" : [
                            0.25,
                            0.25
                        ]
                    }
                },
                "index" : 15
            },
            "pbrMetallicRoughness" : {
                "baseColorTexture" : {
                    "extensions" : {
                        "KHR_texture_transform" : {
                            "offset" : [
                                0,
                                0.75
                            ],
                            "scale" : [
                                0.25,
                                0.25
                            ]
                        }
                    },
                    "index" : 16
                },
                "metallicRoughnessTexture" : {
                    "extensions" : {
                        "KHR_texture_transform" : {
                            "offset" : [
                                0,
                                0.75
                            ],
                            "scale" : [
                                0.25,
                                0.25
                            ]
                        }
                    },
                    "index" : 17
                }
            }
        },
        {
            "doubleSided" : true,
            "name" : "Dev_Black",
            "normalTexture" : {
                "extensions" : {
                    "KHR_texture_transform" : {
                        "offset" : [
                            0,
                            0.75
                        ],
                        "scale" : [
                            0.25,
                            0.25
                        ]
                    }
                },
                "index" : 18
            },
            "pbrMetallicRoughness" : {
                "baseColorTexture" : {
                    "extensions" : {
                        "KHR_texture_transform" : {
                            "offset" : [
                                0,
                                0.75
                            ],
                            "scale" : [
                                0.25,
                                0.25
                            ]
                        }
                    },
                    "index" : 19
                },
                "metallicRoughnessTexture" : {
                    "extensions" : {
                        "KHR_texture_transform" : {
                            "offset" : [
                                0,
                                0.75
                            ],
                            "scale" : [
                                0.25,
                                0.25
                            ]
                        }
                    },
                    "index" : 20
                }
            }
        },
        {
            "doubleSided" : true,
            "name" : "Dev_Yellow",
            "normalTexture" : {
                "extensions" : {
                    "KHR_texture_transform" : {
                        "offset" : [
                            0,
                            0.75
                        ],
                        "scale" : [
                            0.25,
                            0.25
                        ]
                    }
                },
                "index" : 21
            },
            "pbrMetallicRoughness" : {
                "baseColorTexture" : {
                    "extensions" : {
                        "KHR_texture_transform" : {
                            "offset" : [
                                0,
                                0.75
                            ],
                            "scale" : [
                                0.25,
                                0.25
                            ]
                        }
                    },
                    "index" : 22
                },
                "metallicRoughnessTexture" : {
                    "extensions" : {
                        "KHR_texture_transform" : {
                            "offset" : [
                                0,
                                0.75
                            ],
                            "scale" : [
                                0.25,
                                0.25
                            ]
                        }
                    },
                    "index" : 23
                }
            }
        },
        {
            "doubleSided" : true,
            "name" : "Dev_Blue",
            "normalTexture" : {
                "extensions" : {
                    "KHR_texture_transform" : {
                        "offset" : [
                            0,
                            0.75
                        ],
                        "scale" : [
                            0.25,
                            0.25
                        ]
                    }
                },
                "index" : 24
            },
            "pbrMetallicRoughness" : {
                "baseColorTexture" : {
                    "extensions" : {
                        "KHR_texture_transform" : {
                            "offset" : [
                                0,
                                0.75
                            ],
                            "scale" : [
                                0.25,
                                0.25
                            ]
                        }
                    },
                    "index" : 25
                },
                "metallicRoughnessTexture" : {
                    "extensions" : {
                        "KHR_texture_transform" : {
                            "offset" : [
                                0,
                                0.75
                            ],
                            "scale" : [
                                0.25,
                                0.25
                            ]
                        }
                    },
                    "index" : 26
                }
            }
        }
    ],
    "meshes" : [
        {
            "name" : "Cylinder.001",
            "primitives" : [
                {
                    "attributes" : {
                        "POSITION" : 0,
                        "NORMAL" : 1,
                        "TEXCOORD_0" : 2
                    },
                    "indices" : 3,
                    "material" : 0
                }
            ]
        },
        {
            "name" : "Cylinder.002",
            "primitives" : [
                {
                    "attributes" : {
                        "POSITION" : 4,
                        "NORMAL" : 5,
                        "TEXCOORD_0" : 6
                    },
                    "indices" : 7,
                    "material" : 0
                }
            ]
        },
        {
            "name" : "Cube.009",
            "primitives" : [
                {
                    "attributes" : {
                        "POSITION" : 8,
                        "NORMAL" : 9,
                        "TANGENT" : 10,
                        "TEXCOORD_0" : 11
                    },
                    "indices" : 12,
                    "material" : 1
                },
                {
                    "attributes" : {
                        "POSITION" : 13,
                        "NORMAL" : 14,
                        "TANGENT" : 15,
                        "TEXCOORD_0" : 16
                    },
                    "indices" : 17,
                    "material" : 2
                }
            ]
        },
        {
            "name" : "Cube.003",
            "primitives" : [
                {
                    "attributes" : {
                        "POSITION" : 18,
                        "NORMAL" : 19,
                        "TEXCOORD_0" : 20
                    },
                    "indices" : 21,
                    "material" : 3
                }
            ]
        },
        {
            "name" : "Cube.004",
            "primitives" : [
                {
                    "attributes" : {
                        "POSITION" : 22,
                        "NORMAL" : 23,
                        "TANGENT" : 24,
                        "TEXCOORD_0" : 25
                    },
                    "indices" : 26,
                    "material" : 3
                }
            ]
        },
        {
            "name" : "Cube.001",
            "primitives" : [
                {
                    "attributes" : {
                        "POSITION" : 27,
                        "NORMAL" : 28,
                        "TEXCOORD_0" : 29
                    },
                    "indices" : 30,
                    "material" : 4
                },
                {
                    "attributes" : {
                        "POSITION" : 31,
                        "NORMAL" : 32,
                        "TEXCOORD_0" : 33
                    },
                    "indices" : 34,
                    "material" : 5
                }
            ]
        },
        {
            "name" : "Cube.016",
            "primitives" : [
                {
                    "attributes" : {
                        "POSITION" : 35,
                        "NORMAL" : 36,
                        "TANGENT" : 37,
                        "TEXCOORD_0" : 38
                    },
                    "indices" : 39,
                    "material" : 0
                }
            ]
        },
        {
            "name" : "Cube.020",
            "primitives" : [
                {
                    "attributes" : {
                        "POSITION" : 40,
                        "NORMAL" : 41,
                        "TEXCOORD_0" : 42
                    },
                    "indices" : 21,
                    "material" : 3
                }
            ]
        },
        {
            "name" : "Cube.022",
            "primitives" : [
                {
                    "attributes" : {
                        "POSITION" : 43,
                        "NORMAL" : 44
                    },
                    "indices" : 45,
                    "material" : 6
                }
            ]
        },
        {
            "name" : "Cube.024",
            "primitives" : [
                {
                    "attributes" : {
                        "POSITION" : 46,
                        "NORMAL" : 47,
                        "TANGENT" : 48,
                        "TEXCOORD_0" : 49
                    },
                    "indices" : 50,
                    "material" : 7
                },
                {
                    "attributes" : {
                        "POSITION" : 51,
                        "NORMAL" : 52,
                        "TANGENT" : 53,
                        "TEXCOORD_0" : 54
                    },
                    "indices" : 55,
                    "material" : 8
                }
            ]
        },
        {
            "name" : "Cube.026",
            "primitives" : [
                {
                    "attributes" : {
                        "POSITION" : 56,
                        "NORMAL" : 57,
                        "TANGENT" : 58,
                        "TEXCOORD_0" : 59
                    },
                    "indices" : 60,
                    "material" : 3
                }
            ]
        },
        {
            "name" : "Cube.027",
            "primitives" : [
                {
                    "attributes" : {
                        "POSITION" : 61,
                        "NORMAL" : 62,
                        "TANGENT" : 63,
                        "TEXCOORD_0" : 64
                    },
                    "indices" : 65,
                    "material" : 0
                },
                {
                    "attributes" : {
                        "POSITION" : 66,
                        "NORMAL" : 67,
                        "TANGENT" : 68,
                        "TEXCOORD_0" : 69
                    },
                    "indices" : 70,
                    "material" : 7
                }
            ]
        },
        {
            "name" : "Cube.028",
            "primitives" : [
                {
                    "attributes" : {
                        "POSITION" : 71,
                        "NORMAL" : 72,
                        "TANGENT" : 73,
                        "TEXCOORD_0" : 74
                    },
                    "indices" : 75,
                    "material" : 0
                }
            ]
        },
        {
            "name" : "Cube.029",
            "primitives" : [
                {
                    "attributes" : {
                        "POSITION" : 76,
                        "NORMAL" : 77,
                        "TANGENT" : 78,
                        "TEXCOORD_0" : 79
                    },
                    "indices" : 80,
                    "material" : 8
                }
            ]
        },
        {
            "name" : "Cube.032",
            "primitives" : [
                {
                    "attributes" : {
                        "POSITION" : 81,
                        "NORMAL" : 82,
                        "TANGENT" : 83,
                        "TEXCOORD_0" : 84
                    },
                    "indices" : 85,
                    "material" : 8
                },
                {
                    "attributes" : {
                        "POSITION" : 86,
                        "NORMAL" : 87,
                        "TANGENT" : 88,
                        "TEXCOORD_0" : 89
                    },
                    "indices" : 90,
                    "material" : 7
                }
            ]
        }
    ],
    "textures" : [
        {
            "sampler" : 0,
            "source" : 0
        },
        {
            "sampler" : 0,
            "source" : 1
        },
        {
            "sampler" : 0,
            "source" : 2
        },
        {
            "sampler" : 0,
            "source" : 0
        },
        {
            "sampler" : 0,
            "source" : 3
        },
        {
            "sampler" : 0,
            "source" : 2
        },
        {
            "sampler" : 0,
            "source" : 0
        },
        {
            "sampler" : 0,
            "source" : 4
        },
        {
            "sampler" : 0,
            "source" : 2
        },
        {
            "sampler" : 0,
            "source" : 0
        },
        {
            "sampler" : 0,
            "source" : 5
        },
        {
            "sampler" : 0,
            "source" : 2
        },
        {
            "sampler" : 0,
            "source" : 0
        },
        {
            "sampler" : 0,
            "source" : 6
        },
        {
            "sampler" : 0,
            "source" : 2
        },
        {
            "sampler" : 0,
            "source" : 0
        },
        {
            "sampler" : 0,
            "source" : 7
        },
        {
            "sampler" : 0,
            "source" : 2
        },
        {
            "sampler" : 0,
            "source" : 0
        },
        {
            "sampler" : 0,
            "source" : 8
        },
        {
            "sampler" : 0,
            "source" : 2
        },
        {
            "sampler" : 0,
            "source" : 0
        },
        {
            "sampler" : 0,
            "source" : 9
        },
        {
            "sampler" : 0,
            "source" : 2
        },
        {
            "sampler" : 0,
            "source" : 0
        },
        {
            "sampler" : 0,
            "source" : 10
        },
        {
            "sampler" : 0,
            "source" : 2
        }
    ],
    "images" : [
        {
            "mimeType" : "image/png",
            "name" : "Dev_normal",
            "uri" : "Dev_normal.png"
        },
        {
            "mimeType" : "image/png",
            "name" : "Dev_albedo_10",
            "uri" : "Dev_albedo_10.png"
        },
        {
            "mimeType" : "image/png",
            "name" : "Dev_orm",
            "uri" : "Dev_orm.png"
        },
        {
            "mimeType" : "image/png",
            "name" : "Dev_albedo_14",
            "uri" : "Dev_albedo_14.png"
        },
        {
            "mimeType" : "image/png",
            "name" : "Dev_albedo_3",
            "uri" : "Dev_albedo_3.png"
        },
        {
            "mimeType" : "image/png",
            "name" : "Dev_albedo_11",
            "uri" : "Dev_albedo_11.png"
        },
        {
            "mimeType" : "image/png",
            "name" : "Dev_albedo_1",
            "uri" : "Dev_albedo_1.png"
        },
        {
            "mimeType" : "image/png",
            "name" : "Dev_albedo_6",
            "uri" : "Dev_albedo_6.png"
        },
        {
            "mimeType" : "image/png",
            "name" : "Dev_albedo_4",
            "uri" : "Dev_albedo_4.png"
        },
        {
            "mimeType" : "image/png",
            "name" : "Dev_albedo_9",
            "uri" : "Dev_albedo_9.png"
        },
        {
            "mimeType" : "image/png",
            "name" : "Dev_albedo_7",
            "uri" : "Dev_albedo_7.png"
        }
    ],
    "accessors" : [
        {
            "bufferView" : 0,
            "componentType" : 5126,
            "count" : 258,
            "max" : [
                4,
                0.25,
                4
            ],
            "min" : [
                -4,
                -0.25,
                -4
            ],
            "type" : "VEC3"
        },
        {
            "bufferView" : 1,
            "componentType" : 5126,
            "count" : 258,
            "type" : "VEC3"
        },
        {
            "bufferView" : 2,
            "componentType" : 5126,
            "count" : 258,
            "type" : "VEC2"
        },
        {
            "bufferView" : 3,
            "componentType" : 5123,
            "count" : 756,
            "type" : "SCALAR"
        },
        {
            "bufferView" : 4,
            "componentType" : 5126,
            "count" : 98,
            "max" : [
                1.8000000715255737,
                1,
                1.8000000715255737
            ],
            "min" : [
                -1.8000000715255737,
                -0.10536056756973267,
                -1.8000000715255737
            ],
            "type" : "VEC3"
        },
        {
            "bufferView" : 5,
            "componentType" : 5126,
            "count" : 98,
            "type" : "VEC3"
        },
        {
            "bufferView" : 6,
            "componentType" : 5126,
            "count" : 98,
            "type" : "VEC2"
        },
        {
            "bufferView" : 7,
            "componentType" : 5123,
            "count" : 276,
            "type" : "SCALAR"
        },
        {
            "bufferView" : 8,
            "componentType" : 5126,
            "count" : 32,
            "max" : [
                29.995834350585938,
                76.332763671875,
                27.007070541381836
            ],
            "min" : [
                -83.00416564941406,
                -47.667236328125,
                5.007070541381836
            ],
            "type" : "VEC3"
        },
        {
            "bufferView" : 9,
            "componentType" : 5126,
            "count" : 32,
            "type" : "VEC3"
        },
        {
            "bufferView" : 10,
            "componentType" : 5126,
            "count" : 32,
            "type" : "VEC4"
        },
        {
            "bufferView" : 11,
            "componentType" : 5126,
            "count" : 32,
            "type" : "VEC2"
        },
        {
            "bufferView" : 12,
            "componentType" : 5123,
            "count" : 48,
            "type" : "SCALAR"
        },
        {
            "bufferView" : 13,
            "componentType" : 5126,
            "count" : 16,
            "max" : [
                4.9958343505859375,
                76.332763671875,
                15.007070541381836
            ],
            "min" : [
                -45.00416564941406,
                -47.667236328125,
                15.007070541381836
            ],
            "type" : "VEC3"
        },
        {
            "bufferView" : 14,
            "componentType" : 5126,
            "count" : 16,
            "type" : "VEC3"
        },
        {
            "bufferView" : 15,
            "componentType" : 5126,
            "count" : 16,
            "type" : "VEC4"
        },
        {
            "bufferView" : 16,
            "componentType" : 5126,
            "count" : 16,
            "type" : "VEC2"
        },
        {
            "bufferView" : 17,
            "componentType" : 5123,
            "count" : 24,
            "type" : "SCALAR"
        },
        {
            "bufferView" : 18,
            "componentType" : 5126,
            "count" : 26,
            "max" : [
                4,
                0,
                1
            ],
            "min" : [
                0,
                -1,
                -1
            ],
            "type" : "VEC3"
        },
        {
            "bufferView" : 19,
            "componentType" : 5126,
            "count" : 26,
            "type" : "VEC3"
        },
        {
            "bufferView" : 20,
            "componentType" : 5126,
            "count" : 26,
            "type" : "VEC2"
        },
        {
            "bufferView" : 21,
            "componentType" : 5123,
            "count" : 42,
            "type" : "SCALAR"
        },
        {
            "bufferView" : 22,
            "componentType" : 5126,
            "count" : 20,
            "max" : [
                15,
                -0.6000000238418579,
                1
            ],
            "min" : [
                14,
                -1.9000005722045898,
                -5
            ],
            "type" : "VEC3"
        },
        {
            "bufferView" : 23,
            "componentType" : 5126,
            "count" : 20,
            "type" : "VEC3"
        },
        {
            "bufferView" : 24,
            "componentType" : 5126,
            "count" : 20,
            "type" : "VEC4"
        },
        {
            "bufferView" : 25,
            "componentType" : 5126,
            "count" : 20,
            "type" : "VEC2"
        },
        {
            "bufferView" : 26,
            "componentType" : 5123,
            "count" : 30,
            "type" : "SCALAR"
        },
        {
            "bufferView" : 27,
            "componentType" : 5126,
            "count" : 736,
            "max" : [
                21.39470672607422,
                51,
                13.527973175048828
            ],
            "min" : [
                -24.01189422607422,
                -9,
                -45.99995040893555
            ],
            "type" : "VEC3"
        },
        {
            "bufferView" : 28,
            "componentType" : 5126,
            "count" : 736,
            "type" : "VEC3"
        },
        {
            "bufferView" : 29,
            "componentType" : 5126,
            "count" : 736,
            "type" : "VEC2"
        },
        {
            "bufferView" : 30,
            "componentType" : 5123,
            "count" : 1512,
            "type" : "SCALAR"
        },
        {
            "bufferView" : 31,
            "componentType" : 5126,
            "count" : 68,
            "max" : [
                7.988105773925781,
                52,
                -8.999950408935547
            ],
            "min" : [
                -16.51189422607422,
                7,
                -34.99995040893555
            ],
            "type" : "VEC3"
        },
        {
            "bufferView" : 32,
            "componentType" : 5126,
            "count" : 68,
            "type" : "VEC3"
        },
        {
            "bufferView" : 33,
            "componentType" : 5126,
            "count" : 68,
            "type" : "VEC2"
        },
        {
            "bufferView" : 34,
            "componentType" : 5123,
            "count" : 102,
            "type" : "SCALAR"
        },
        {
            "bufferView" : 35,
            "componentType" : 5126,
            "count" : 33,
            "max" : [
                -4,
                5,
                1
            ],
            "min" : [
                -21,
                -1,
                -19
            ],
            "type" : "VEC3"
        },
        {
            "bufferView" : 36,
            "componentType" : 5126,
            "count" : 33,
            "type" : "VEC3"
        },
        {
            "bufferView" : 37,
            "componentType" : 5126,
            "count" : 33,
            "type" : "VEC4"
        },
        {
            "bufferView" : 38,
            "componentType" : 5126,
            "count" : 33,
            "type" : "VEC2"
        },
        {
            "bufferView" : 39,
            "componentType" : 5123,
            "count" : 63,
            "type" : "SCALAR"
        },
        {
            "bufferView" : 40,
            "componentType" : 5126,
            "count" : 26,
            "max" : [
                4,
                0,
                1
            ],
            "min" : [
                -5,
                -1,
                -1
            ],
            "type" : "VEC3"
        },
        {
            "bufferView" : 41,
            "componentType" : 5126,
            "count" : 26,
            "type" : "VEC3"
        },
        {
            "bufferView" : 42,
            "componentType" : 5126,
            "count" : 26,
            "type" : "VEC2"
        },
        {
            "bufferView" : 43,
            "componentType" : 5126,
            "count" : 36,
            "max" : [
                29.995834350585938,
                60.332763671875,
                27.00707244873047
            ],
            "min" : [
                -45.00416564941406,
                -5.667236328125,
                -43.78230667114258
            ],
            "type" : "VEC3"
        },
        {
            "bufferView" : 44,
            "componentType" : 5126,
            "count" : 36,
            "type" : "VEC3"
        },
        {
            "bufferView" : 45,
            "componentType" : 5123,
            "count" : 66,
            "type" : "SCALAR"
        },
        {
            "bufferView" : 46,
            "componentType" : 5126,
            "count" : 56,
            "max" : [
                -23.5,
                15,
                23
            ],
            "min" : [
                -42.5,
                6,
                11
            ],
            "type" : "VEC3"
        },
        {
            "bufferView" : 47,
            "componentType" : 5126,
            "count" : 56,
            "type" : "VEC3"
        },
        {
            "bufferView" : 48,
            "componentType" : 5126,
            "count" : 56,
            "type" : "VEC4"
        },
        {
            "bufferView" : 49,
            "componentType" : 5126,
            "count" : 56,
            "type" : "VEC2"
        },
        {
            "bufferView" : 50,
            "componentType" : 5123,
            "count" : 108,
            "type" : "SCALAR"
        },
        {
            "bufferView" : 51,
            "componentType" : 5126,
            "count" : 4,
            "max" : [
                -42.5,
                11,
                16
            ],
            "min" : [
                -42.5,
                6,
                11
            ],
            "type" : "VEC3"
        },
        {
            "bufferView" : 52,
            "componentType" : 5126,
            "count" : 4,
            "type" : "VEC3"
        },
        {
            "bufferView" : 53,
            "componentType" : 5126,
            "count" : 4,
            "type" : "VEC4"
        },
        {
            "bufferView" : 54,
            "componentType" : 5126,
            "count" : 4,
            "type" : "VEC2"
        },
        {
            "bufferView" : 55,
            "componentType" : 5123,
            "count" : 6,
            "type" : "SCALAR"
        },
        {
            "bufferView" : 56,
            "componentType" : 5126,
            "count" : 24,
            "max" : [
                1,
                1,
                1
            ],
            "min" : [
                -1,
                -1,
                -1
            ],
            "type" : "VEC3"
        },
        {
            "bufferView" : 57,
            "componentType" : 5126,
            "count" : 24,
            "type" : "VEC3"
        },
        {
            "bufferView" : 58,
            "componentType" : 5126,
            "count" : 24,
            "type" : "VEC4"
        },
        {
            "bufferView" : 59,
            "componentType" : 5126,
            "count" : 24,
            "type" : "VEC2"
        },
        {
            "bufferView" : 60,
            "componentType" : 5123,
            "count" : 36,
            "type" : "SCALAR"
        },
        {
            "bufferView" : 61,
            "componentType" : 5126,
            "count" : 52,
            "max" : [
                -21,
                11,
                11
            ],
            "min" : [
                -42.5,
                5,
                -5
            ],
            "type" : "VEC3"
        },
        {
            "bufferView" : 62,
            "componentType" : 5126,
            "count" : 52,
            "type" : "VEC3"
        },
        {
            "bufferView" : 63,
            "componentType" : 5126,
            "count" : 52,
            "type" : "VEC4"
        },
        {
            "bufferView" : 64,
            "componentType" : 5126,
            "count" : 52,
            "type" : "VEC2"
        },
        {
            "bufferView" : 65,
            "componentType" : 5123,
            "count" : 102,
            "type" : "SCALAR"
        },
        {
            "bufferView" : 66,
            "componentType" : 5126,
            "count" : 8,
            "max" : [
                -21,
                11,
                1
            ],
            "min" : [
                -37.5,
                5,
                1
            ],
            "type" : "VEC3"
        },
        {
            "bufferView" : 67,
            "componentType" : 5126,
            "count" : 8,
            "type" : "VEC3"
        },
        {
            "bufferView" : 68,
            "componentType" : 5126,
            "count" : 8,
            "type" : "VEC4"
        },
        {
            "bufferView" : 69,
            "componentType" : 5126,
            "count" : 8,
            "type" : "VEC2"
        },
        {
            "bufferView" : 70,
            "componentType" : 5123,
            "count" : 18,
            "type" : "SCALAR"
        },
        {
            "bufferView" : 71,
            "componentType" : 5126,
            "count" : 38,
            "max" : [
                0.13000011444091797,
                3,
                1
            ],
            "min" : [
                -3.870000123977661,
                -1,
                -5
            ],
            "type" : "VEC3"
        },
        {
            "bufferView" : 72,
            "componentType" : 5126,
            "count" : 38,
            "type" : "VEC3"
        },
        {
            "bufferView" : 73,
            "componentType" : 5126,
            "count" : 38,
            "type" : "VEC4"
        },
        {
            "bufferView" : 74,
            "componentType" : 5126,
            "count" : 38,
            "type" : "VEC2"
        },
        {
            "bufferView" : 75,
            "componentType" : 5123,
            "count" : 72,
            "type" : "SCALAR"
        },
        {
            "bufferView" : 76,
            "componentType" : 5126,
            "count" : 142,
            "max" : [
                -17,
                4,
                1
            ],
            "min" : [
                -39.5,
                -2,
                -22
            ],
            "type" : "VEC3"
        },
        {
            "bufferView" : 77,
            "componentType" : 5126,
            "count" : 142,
            "type" : "VEC3"
        },
        {
            "bufferView" : 78,
            "componentType" : 5126,
            "count" : 142,
            "type" : "VEC4"
        },
        {
            "bufferView" : 79,
            "componentType" : 5126,
            "count" : 142,
            "type" : "VEC2"
        },
        {
            "bufferView" : 80,
            "componentType" : 5123,
            "count" : 252,
            "type" : "SCALAR"
        },
        {
            "bufferView" : 81,
            "componentType" : 5126,
            "count" : 6,
            "max" : [
                -28.5,
                11,
                16
            ],
            "min" : [
                -37.5,
                4,
                16
            ],
            "type" : "VEC3"
        },
        {
            "bufferView" : 82,
            "componentType" : 5126,
            "count" : 6,
            "type" : "VEC3"
        },
        {
            "bufferView" : 83,
            "componentType" : 5126,
            "count" : 6,
            "type" : "VEC4"
        },
        {
            "bufferView" : 84,
            "componentType" : 5126,
            "count" : 6,
            "type" : "VEC2"
        },
        {
            "bufferView" : 85,
            "componentType" : 5123,
            "count" : 12,
            "type" : "SCALAR"
        },
        {
            "bufferView" : 86,
            "componentType" : 5126,
            "count" : 50,
            "max" : [
                -28.5,
                11,
                16
            ],
            "min" : [
                -37.5,
                -1,
                1
            ],
            "type" : "VEC3"
        },
        {
            "bufferView" : 87,
            "componentType" : 5126,
            "count" : 50,
            "type" : "VEC3"
        },
        {
            "bufferView" : 88,
            "componentType" : 5126,
            "count" : 50,
            "type" : "VEC4"
        },
        {
            "bufferView" : 89,
            "componentType" : 5126,
            "count" : 50,
            "type" : "VEC2"
        },
        {
            "bufferView" : 90,
            "componentType" : 5123,
            "count" : 84,
            "type" : "SCALAR"
        }
    ],
    "bufferViews" : [
        {
            "buffer" : 0,
            "byteLength" : 3096,
            "byteOffset" : 0
        },
        {
            "buffer" : 0,
            "byteLength" : 3096,
            "byteOffset" : 3096
        },
        {
            "buffer" : 0,
            "byteLength" : 2064,
            "byteOffset" : 6192
        },
        {
            "buffer" : 0,
            "byteLength" : 1512,
            "byteOffset" : 8256
        },
        {
            "buffer" : 0,
            "byteLength" : 1176,
            "byteOffset" : 9768
        },
        {
            "buffer" : 0,
            "byteLength" : 1176,
            "byteOffset" : 10944
        },
        {
            "buffer" : 0,
            "byteLength" : 784,
            "byteOffset" : 12120
        },
        {
            "buffer" : 0,
            "byteLength" : 552,
            "byteOffset" : 12904
        },
        {
            "buffer" : 0,
            "byteLength" : 384,
            "byteOffset" : 13456
        },
        {
            "buffer" : 0,
            "byteLength" : 384,
            "byteOffset" : 13840
        },
        {
            "buffer" : 0,
            "byteLength" : 512,
            "byteOffset" : 14224
        },
        {
            "buffer" : 0,
            "byteLength" : 256,
            "byteOffset" : 14736
        },
        {
            "buffer" : 0,
            "byteLength" : 96,
            "byteOffset" : 14992
        },
        {
            "buffer" : 0,
            "byteLength" : 192,
            "byteOffset" : 15088
        },
        {
            "buffer" : 0,
            "byteLength" : 192,
            "byteOffset" : 15280
        },
        {
            "buffer" : 0,
            "byteLength" : 256,
            "byteOffset" : 15472
        },
        {
            "buffer" : 0,
            "byteLength" : 128,
            "byteOffset" : 15728
        },
        {
            "buffer" : 0,
            "byteLength" : 48,
            "byteOffset" : 15856
        },
        {
            "buffer" : 0,
            "byteLength" : 312,
            "byteOffset" : 15904
        },
        {
            "buffer" : 0,
            "byteLength" : 312,
            "byteOffset" : 16216
        },
        {
            "buffer" : 0,
            "byteLength" : 208,
            "byteOffset" : 16528
        },
        {
            "buffer" : 0,
            "byteLength" : 84,
            "byteOffset" : 16736
        },
        {
            "buffer" : 0,
            "byteLength" : 240,
            "byteOffset" : 16820
        },
        {
            "buffer" : 0,
            "byteLength" : 240,
            "byteOffset" : 17060
        },
        {
            "buffer" : 0,
            "byteLength" : 320,
            "byteOffset" : 17300
        },
        {
            "buffer" : 0,
            "byteLength" : 160,
            "byteOffset" : 17620
        },
        {
            "buffer" : 0,
            "byteLength" : 60,
            "byteOffset" : 17780
        },
        {
            "buffer" : 0,
            "byteLength" : 8832,
            "byteOffset" : 17840
        },
        {
            "buffer" : 0,
            "byteLength" : 8832,
            "byteOffset" : 26672
        },
        {
            "buffer" : 0,
            "byteLength" : 5888,
            "byteOffset" : 35504
        },
        {
            "buffer" : 0,
            "byteLength" : 3024,
            "byteOffset" : 41392
        },
        {
            "buffer" : 0,
            "byteLength" : 816,
            "byteOffset" : 44416
        },
        {
            "buffer" : 0,
            "byteLength" : 816,
            "byteOffset" : 45232
        },
        {
            "buffer" : 0,
            "byteLength" : 544,
            "byteOffset" : 46048
        },
        {
            "buffer" : 0,
            "byteLength" : 204,
            "byteOffset" : 46592
        },
        {
            "buffer" : 0,
            "byteLength" : 396,
            "byteOffset" : 46796
        },
        {
            "buffer" : 0,
            "byteLength" : 396,
            "byteOffset" : 47192
        },
        {
            "buffer" : 0,
            "byteLength" : 528,
            "byteOffset" : 47588
        },
        {
            "buffer" : 0,
            "byteLength" : 264,
            "byteOffset" : 48116
        },
        {
            "buffer" : 0,
            "byteLength" : 126,
            "byteOffset" : 48380
        },
        {
            "buffer" : 0,
            "byteLength" : 312,
            "byteOffset" : 48508
        },
        {
            "buffer" : 0,
            "byteLength" : 312,
            "byteOffset" : 48820
        },
        {
            "buffer" : 0,
            "byteLength" : 208,
            "byteOffset" : 49132
        },
        {
            "buffer" : 0,
            "byteLength" : 432,
            "byteOffset" : 49340
        },
        {
            "buffer" : 0,
            "byteLength" : 432,
            "byteOffset" : 49772
        },
        {
            "buffer" : 0,
            "byteLength" : 132,
            "byteOffset" : 50204
        },
        {
            "buffer" : 0,
            "byteLength" : 672,
            "byteOffset" : 50336
        },
        {
            "buffer" : 0,
            "byteLength" : 672,
            "byteOffset" : 51008
        },
        {
            "buffer" : 0,
            "byteLength" : 896,
            "byteOffset" : 51680
        },
        {
            "buffer" : 0,
            "byteLength" : 448,
            "byteOffset" : 52576
        },
        {
            "buffer" : 0,
            "byteLength" : 216,
            "byteOffset" : 53024
        },
        {
            "buffer" : 0,
            "byteLength" : 48,
            "byteOffset" : 53240
        },
        {
            "buffer" : 0,
            "byteLength" : 48,
            "byteOffset" : 53288
        },
        {
            "buffer" : 0,
            "byteLength" : 64,
            "byteOffset" : 53336
        },
        {
            "buffer" : 0,
            "byteLength" : 32,
            "byteOffset" : 53400
        },
        {
            "buffer" : 0,
            "byteLength" : 12,
            "byteOffset" : 53432
        },
        {
            "buffer" : 0,
            "byteLength" : 288,
            "byteOffset" : 53444
        },
        {
            "buffer" : 0,
            "byteLength" : 288,
            "byteOffset" : 53732
        },
        {
            "buffer" : 0,
            "byteLength" : 384,
            "byteOffset" : 54020
        },
        {
            "buffer" : 0,
            "byteLength" : 192,
            "byteOffset" : 54404
        },
        {
            "buffer" : 0,
            "byteLength" : 72,
            "byteOffset" : 54596
        },
        {
            "buffer" : 0,
            "byteLength" : 624,
            "byteOffset" : 54668
        },
        {
            "buffer" : 0,
            "byteLength" : 624,
            "byteOffset" : 55292
        },
        {
            "buffer" : 0,
            "byteLength" : 832,
            "byteOffset" : 55916
        },
        {
            "buffer" : 0,
            "byteLength" : 416,
            "byteOffset" : 56748
        },
        {
            "buffer" : 0,
            "byteLength" : 204,
            "byteOffset" : 57164
        },
        {
            "buffer" : 0,
            "byteLength" : 96,
            "byteOffset" : 57368
        },
        {
            "buffer" : 0,
            "byteLength" : 96,
            "byteOffset" : 57464
        },
        {
            "buffer" : 0,
            "byteLength" : 128,
            "byteOffset" : 57560
        },
        {
            "buffer" : 0,
            "byteLength" : 64,
            "byteOffset" : 57688
        },
        {
            "buffer" : 0,
            "byteLength" : 36,
            "byteOffset" : 57752
        },
        {
            "buffer" : 0,
            "byteLength" : 456,
            "byteOffset" : 57788
        },
        {
            "buffer" : 0,
            "byteLength" : 456,
            "byteOffset" : 58244
        },
        {
            "buffer" : 0,
            "byteLength" : 608,
            "byteOffset" : 58700
        },
        {
            "buffer" : 0,
            "byteLength" : 304,
            "byteOffset" : 59308
        },
        {
            "buffer" : 0,
            "byteLength" : 144,
            "byteOffset" : 59612
        },
        {
            "buffer" : 0,
            "byteLength" : 1704,
            "byteOffset" : 59756
        },
        {
            "buffer" : 0,
            "byteLength" : 1704,
            "byteOffset" : 61460
        },
        {
            "buffer" : 0,
            "byteLength" : 2272,
            "byteOffset" : 63164
        },
        {
            "buffer" : 0,
            "byteLength" : 1136,
            "byteOffset" : 65436
        },
        {
            "buffer" : 0,
            "byteLength" : 504,
            "byteOffset" : 66572
        },
        {
            "buffer" : 0,
            "byteLength" : 72,
            "byteOffset" : 67076
        },
        {
            "buffer" : 0,
            "byteLength" : 72,
            "byteOffset" : 67148
        },
        {
            "buffer" : 0,
            "byteLength" : 96,
            "byteOffset" : 67220
        },
        {
            "buffer" : 0,
            "byteLength" : 48,
            "byteOffset" : 67316
        },
        {
            "buffer" : 0,
            "byteLength" : 24,
            "byteOffset" : 67364
        },
        {
            "buffer" : 0,
            "byteLength" : 600,
            "byteOffset" : 67388
        },
        {
            "buffer" : 0,
            "byteLength" : 600,
            "byteOffset" : 67988
        },
        {
            "buffer" : 0,
            "byteLength" : 800,
            "byteOffset" : 68588
        },
        {
            "buffer" : 0,
            "byteLength" : 400,
            "byteOffset" : 69388
        },
        {
            "buffer" : 0,
            "byteLength" : 168,
            "byteOffset" : 69788
        }
    ],
    "samplers" : [
        {
            "magFilter" : 9729,
            "minFilter" : 9987
        }
    ],
    "buffers" : [
        {
            "byteLength" : 69956,
            "uri" : "DM1-2.bin"
        }
    ]
}
